\relax 
\providecommand\hyper@newdestlabel[2]{}
\@writefile{toc}{\contentsline {chapter}{\numberline {A}Spring Data}{24}{appendix.A}}
\@writefile{lof}{\addvspace {10\p@ }}
\@writefile{lot}{\addvspace {10\p@ }}
\newlabel{chap:app}{{A}{24}{Spring Data}{appendix.A}{}}
\@writefile{toc}{\contentsline {chapter}{\numberline {B}Hibernate}{35}{appendix.B}}
\@writefile{lof}{\addvspace {10\p@ }}
\@writefile{lot}{\addvspace {10\p@ }}
\@writefile{toc}{\contentsline {chapter}{\numberline {C}Verzeichnisse}{48}{appendix.C}}
\@writefile{lof}{\addvspace {10\p@ }}
\@writefile{lot}{\addvspace {10\p@ }}
\newlabel{chap:asdf}{{C}{48}{Verzeichnisse}{appendix.C}{}}
\@writefile{toc}{\contentsline {section}{Abbildungsverzeichnis}{48}{appendix.C}}
\@writefile{toc}{\contentsline {section}{Tabellenverzeichnis}{50}{appendix*.7}}
\bibstyle{alpha}
\citation{Koc1998}
\bibdata{thesis}
\bibcite{vs}{AST07}
\bibcite{edgarCodd}{Cod90a}
\bibcite{Koc1998}{Cod90b}
\bibcite{Haihong}{JH}
\bibcite{Emanuela}{MK}
\bibcite{benjaminThurm}{Thu12}
\bibcite{Topko}{Top}
\bibcite{Voth}{Vot}
\@writefile{toc}{\contentsline {section}{Literaturverzeichnis}{51}{appendix*.8}}
\@setckpt{appendix}{
\setcounter{page}{52}
\setcounter{equation}{0}
\setcounter{enumi}{0}
\setcounter{enumii}{0}
\setcounter{enumiii}{0}
\setcounter{enumiv}{0}
\setcounter{footnote}{0}
\setcounter{mpfootnote}{0}
\setcounter{part}{0}
\setcounter{chapter}{3}
\setcounter{section}{0}
\setcounter{subsection}{0}
\setcounter{subsubsection}{0}
\setcounter{paragraph}{0}
\setcounter{subparagraph}{0}
\setcounter{figure}{0}
\setcounter{table}{0}
\setcounter{lstnumber}{52}
\setcounter{float@type}{8}
\setcounter{LT@tables}{1}
\setcounter{LT@chunks}{3}
\setcounter{subfigure}{0}
\setcounter{lofdepth}{1}
\setcounter{subtable}{0}
\setcounter{lotdepth}{1}
\setcounter{Item}{0}
\setcounter{Hfootnote}{0}
\setcounter{bookmark@seq@number}{0}
\setcounter{lstlisting}{0}
\setcounter{section@level}{1}
}
