\relax 
\providecommand\hyper@newdestlabel[2]{}
\citation{edgarCodd}
\citation{benjaminThurm}
\@writefile{toc}{\contentsline {chapter}{\numberline {2}Grundlagen}{3}{chapter.2}}
\@writefile{lof}{\addvspace {10\p@ }}
\@writefile{lot}{\addvspace {10\p@ }}
\newlabel{chap:basics}{{2}{3}{Grundlagen}{chapter.2}{}}
\@writefile{toc}{\contentsline {section}{\numberline {2.1}Datenbanktypen}{3}{section.2.1}}
\newlabel{sec:datenbanktypen}{{2.1}{3}{Datenbanktypen}{section.2.1}{}}
\@writefile{toc}{\contentsline {subsection}{\numberline {2.1.1}Relationale Datenbanken}{3}{subsection.2.1.1}}
\newlabel{subsec:relationaleDatenbanken}{{2.1.1}{3}{Relationale Datenbanken}{subsection.2.1.1}{}}
\@writefile{brf}{\backcite{edgarCodd}{{3}{2.1.1}{subsection.2.1.1}}}
\@writefile{toc}{\contentsline {subsubsection}{\numberline {2.1.1.1}Aufbau}{3}{subsubsection.2.1.1.1}}
\newlabel{subsubsec:relationaleDatenbankenAufbau}{{2.1.1.1}{3}{Aufbau}{subsubsection.2.1.1.1}{}}
\@writefile{toc}{\contentsline {subsubsection}{\numberline {2.1.1.2}SQL (Structured Query Language)}{3}{subsubsection.2.1.1.2}}
\newlabel{subsubsec:relationaleDatenbankenSQL}{{2.1.1.2}{3}{SQL (Structured Query Language)}{subsubsection.2.1.1.2}{}}
\citation{benjaminThurm}
\citation{benjaminThurm}
\citation{benjaminThurm}
\citation{benjaminThurm}
\@writefile{toc}{\contentsline {subsection}{\numberline {2.1.2}No-SQL Datenbanken}{4}{subsection.2.1.2}}
\newlabel{subsec:nosqldatenbanken}{{2.1.2}{4}{No-SQL Datenbanken}{subsection.2.1.2}{}}
\@writefile{brf}{\backcite{benjaminThurm}{{4}{2.1.2}{subsection.2.1.2}}}
\@writefile{brf}{\backcite{benjaminThurm}{{4}{2.1.2}{subsection.2.1.2}}}
\@writefile{brf}{\backcite{benjaminThurm}{{4}{2.1.2}{subsection.2.1.2}}}
\@writefile{toc}{\contentsline {subsubsection}{\numberline {2.1.2.1}Arten von NoSQL Datenbanken}{4}{subsubsection.2.1.2.1}}
\newlabel{subsubsec:artenvonnosqldatenbanken}{{2.1.2.1}{4}{Arten von NoSQL Datenbanken}{subsubsection.2.1.2.1}{}}
\@writefile{brf}{\backcite{benjaminThurm}{{4}{2.1.2.1}{subsubsection.2.1.2.1}}}
\citation{benjaminThurm}
\citation{benjaminThurm}
\citation{benjaminThurm}
\citation{benjaminThurm}
\citation{benjaminThurm}
\newlabel{paragraphc:keyvaluestores}{{2.1.2.1}{5}{Key/Values Stores}{section*.2}{}}
\@writefile{toc}{\contentsline {paragraph}{Key/Values Stores}{5}{section*.2}}
\@writefile{brf}{\backcite{benjaminThurm}{{5}{2.1.2.1}{section*.2}}}
\@writefile{brf}{\backcite{benjaminThurm}{{5}{2.1.2.1}{section*.2}}}
\@writefile{brf}{\backcite{benjaminThurm}{{5}{2.1.2.1}{section*.2}}}
\newlabel{paragraphc:widecolumnstores}{{2.1.2.1}{5}{Wide Column Stores}{section*.3}{}}
\@writefile{toc}{\contentsline {paragraph}{Wide Column Stores}{5}{section*.3}}
\@writefile{brf}{\backcite{benjaminThurm}{{5}{2.1.2.1}{section*.3}}}
\@writefile{brf}{\backcite{benjaminThurm}{{5}{2.1.2.1}{section*.3}}}
\newlabel{paragraphc:documentstores}{{2.1.2.1}{5}{Document Stores}{section*.4}{}}
\@writefile{toc}{\contentsline {paragraph}{Document Stores}{5}{section*.4}}
\@writefile{brf}{\backcite{benjaminThurm}{{5}{2.1.2.1}{section*.4}}}
\citation{Emanuela}
\citation{Emanuela}
\citation{benjaminThurm}
\newlabel{paragraphc:graphdatabases}{{2.1.2.1}{6}{Graph Databases}{section*.5}{}}
\@writefile{toc}{\contentsline {paragraph}{Graph Databases}{6}{section*.5}}
\@writefile{brf}{\backcite{Emanuela}{{6}{2.1.2.1}{section*.5}}}
\@writefile{brf}{\backcite{Emanuela}{{6}{2.1.2.1}{section*.5}}}
\@writefile{brf}{\backcite{benjaminThurm}{{6}{2.1.2.1}{section*.5}}}
\@writefile{toc}{\contentsline {section}{\numberline {2.2}Technische Grundlagen}{6}{section.2.2}}
\newlabel{sec:technischeGrundlagen}{{2.2}{6}{Technische Grundlagen}{section.2.2}{}}
\@writefile{toc}{\contentsline {subsection}{\numberline {2.2.1}Skalierung}{6}{subsection.2.2.1}}
\newlabel{subsec:horizontaleskalierung}{{2.2.1}{6}{Skalierung}{subsection.2.2.1}{}}
\citation{Haihong}
\citation{Haihong}
\citation{benjaminThurm}
\citation{Haihong}
\citation{benjaminThurm}
\citation{Haihong}
\citation{benjaminThurm}
\@writefile{toc}{\contentsline {subsection}{\numberline {2.2.2}CAP-Theorem}{7}{subsection.2.2.2}}
\newlabel{subsec:captheorem}{{2.2.2}{7}{CAP-Theorem}{subsection.2.2.2}{}}
\@writefile{brf}{\backcite{Haihong}{{7}{2.2.2}{subsection.2.2.2}}}
\@writefile{toc}{\contentsline {paragraph}{}{7}{section*.6}}
\@writefile{brf}{\backcite{Haihong}{{7}{2.2.2}{section*.6}}}
\@writefile{brf}{\backcite{benjaminThurm}{{7}{2.2.2}{section*.6}}}
\@writefile{brf}{\backcite{Haihong}{{7}{2.2.2}{section*.6}}}
\@writefile{brf}{\backcite{benjaminThurm}{{7}{2.2.2}{section*.6}}}
\citation{benjaminThurm}
\citation{vs}
\citation{vs}
\@writefile{brf}{\backcite{Haihong}{{8}{2.2.2}{section*.6}}}
\@writefile{brf}{\backcite{benjaminThurm}{{8}{2.2.2}{section*.6}}}
\@writefile{lof}{\contentsline {figure}{\numberline {2.1}{\ignorespaces Zuordnung von Datenbanksystemen gem\IeC {\"a}\IeC {\ss } CAP-Theorem}}{8}{figure.2.1}}
\newlabel{fig:captheorem}{{2.1}{8}{Zuordnung von Datenbanksystemen gemäß CAP-Theorem}{figure.2.1}{}}
\@writefile{toc}{\contentsline {subsection}{\numberline {2.2.3}Transaktionen}{8}{subsection.2.2.3}}
\newlabel{subsec:transaktionen}{{2.2.3}{8}{Transaktionen}{subsection.2.2.3}{}}
\@writefile{toc}{\contentsline {subsubsection}{\numberline {2.2.3.1}ACID Eigenschaften}{8}{subsubsection.2.2.3.1}}
\newlabel{subsubsec:acid}{{2.2.3.1}{8}{ACID Eigenschaften}{subsubsection.2.2.3.1}{}}
\@writefile{brf}{\backcite{benjaminThurm}{{8}{2.2.3.1}{subsubsection.2.2.3.1}}}
\@writefile{brf}{\backcite{vs}{{8}{2.2.3.1}{subsubsection.2.2.3.1}}}
\citation{vs}
\citation{vs}
\citation{Emanuela}
\citation{Emanuela}
\citation{Emanuela}
\@writefile{brf}{\backcite{vs}{{9}{2.2.3.1}{subsubsection.2.2.3.1}}}
\@writefile{brf}{\backcite{vs}{{9}{2.2.3.1}{subsubsection.2.2.3.1}}}
\@writefile{brf}{\backcite{vs}{{9}{2.2.3.1}{subsubsection.2.2.3.1}}}
\@writefile{toc}{\contentsline {subsubsection}{\numberline {2.2.3.2}BASE-Prinzip}{9}{subsubsection.2.2.3.2}}
\newlabel{subsubsec:baseprinzip}{{2.2.3.2}{9}{BASE-Prinzip}{subsubsection.2.2.3.2}{}}
\@writefile{brf}{\backcite{Emanuela}{{9}{2.2.3.2}{subsubsection.2.2.3.2}}}
\@writefile{brf}{\backcite{Emanuela}{{9}{2.2.3.2}{subsubsection.2.2.3.2}}}
\@writefile{brf}{\backcite{Emanuela}{{9}{2.2.3.2}{subsubsection.2.2.3.2}}}
\@writefile{toc}{\contentsline {section}{\numberline {2.3}Persistenz Frameworks}{9}{section.2.3}}
\newlabel{sec:persistenzframeworks}{{2.3}{9}{Persistenz Frameworks}{section.2.3}{}}
\@writefile{toc}{\contentsline {subsection}{\numberline {2.3.1}Hibernate OGM}{10}{subsection.2.3.1}}
\newlabel{subsec:hibernate}{{2.3.1}{10}{Hibernate OGM}{subsection.2.3.1}{}}
\@writefile{toc}{\contentsline {subsection}{\numberline {2.3.2}Spring Data}{11}{subsection.2.3.2}}
\newlabel{subsec:spring}{{2.3.2}{11}{Spring Data}{subsection.2.3.2}{}}
\@setckpt{chapter2}{
\setcounter{page}{12}
\setcounter{equation}{0}
\setcounter{enumi}{0}
\setcounter{enumii}{0}
\setcounter{enumiii}{0}
\setcounter{enumiv}{0}
\setcounter{footnote}{0}
\setcounter{mpfootnote}{0}
\setcounter{part}{0}
\setcounter{chapter}{2}
\setcounter{section}{3}
\setcounter{subsection}{2}
\setcounter{subsubsection}{0}
\setcounter{paragraph}{0}
\setcounter{subparagraph}{0}
\setcounter{figure}{1}
\setcounter{table}{0}
\setcounter{lstnumber}{5}
\setcounter{float@type}{8}
\setcounter{LT@tables}{0}
\setcounter{LT@chunks}{0}
\setcounter{subfigure}{0}
\setcounter{lofdepth}{1}
\setcounter{subtable}{0}
\setcounter{lotdepth}{1}
\setcounter{Item}{0}
\setcounter{Hfootnote}{0}
\setcounter{bookmark@seq@number}{0}
\setcounter{lstlisting}{0}
\setcounter{section@level}{2}
}
