\relax 
\providecommand\hyper@newdestlabel[2]{}
\@writefile{toc}{\contentsline {chapter}{\numberline {4}Fazit}{22}{chapter.4}}
\@writefile{lof}{\addvspace {10\p@ }}
\@writefile{lot}{\addvspace {10\p@ }}
\newlabel{chap:fazit}{{4}{22}{Fazit}{chapter.4}{}}
\@writefile{toc}{\contentsline {section}{\numberline {4.1}Diskussion und Reflexion}{22}{section.4.1}}
\newlabel{sec:diskussionreflexion}{{4.1}{22}{Diskussion und Reflexion}{section.4.1}{}}
\@writefile{toc}{\contentsline {section}{\numberline {4.2}Zusammenfassung}{22}{section.4.2}}
\newlabel{sec:zusammenfassung}{{4.2}{22}{Zusammenfassung}{section.4.2}{}}
\citation{benjaminThurm}
\citation{Topko}
\citation{Voth}
\@writefile{toc}{\contentsline {section}{\numberline {4.3}Related Work}{23}{section.4.3}}
\newlabel{sec:relatedworks}{{4.3}{23}{Related Work}{section.4.3}{}}
\@writefile{brf}{\backcite{benjaminThurm}{{23}{4.3}{section.4.3}}}
\@writefile{brf}{\backcite{Topko}{{23}{4.3}{section.4.3}}}
\@writefile{brf}{\backcite{Voth}{{23}{4.3}{section.4.3}}}
\@writefile{toc}{\contentsline {section}{\numberline {4.4}Future Work}{23}{section.4.4}}
\newlabel{sec:ausblick}{{4.4}{23}{Future Work}{section.4.4}{}}
\@setckpt{chapter4}{
\setcounter{page}{24}
\setcounter{equation}{0}
\setcounter{enumi}{0}
\setcounter{enumii}{0}
\setcounter{enumiii}{0}
\setcounter{enumiv}{0}
\setcounter{footnote}{0}
\setcounter{mpfootnote}{0}
\setcounter{part}{0}
\setcounter{chapter}{4}
\setcounter{section}{4}
\setcounter{subsection}{0}
\setcounter{subsubsection}{0}
\setcounter{paragraph}{0}
\setcounter{subparagraph}{0}
\setcounter{figure}{0}
\setcounter{table}{0}
\setcounter{lstnumber}{5}
\setcounter{float@type}{8}
\setcounter{LT@tables}{1}
\setcounter{LT@chunks}{3}
\setcounter{subfigure}{0}
\setcounter{lofdepth}{1}
\setcounter{subtable}{0}
\setcounter{lotdepth}{1}
\setcounter{Item}{0}
\setcounter{Hfootnote}{0}
\setcounter{bookmark@seq@number}{0}
\setcounter{lstlisting}{0}
\setcounter{section@level}{1}
}
