\relax 
\providecommand\hyper@newdestlabel[2]{}
\@writefile{toc}{\contentsline {chapter}{\numberline {3}Benchmark}{12}{chapter.3}}
\@writefile{lof}{\addvspace {10\p@ }}
\@writefile{lot}{\addvspace {10\p@ }}
\newlabel{chap:benchmark}{{3}{12}{Benchmark}{chapter.3}{}}
\@writefile{toc}{\contentsline {section}{\numberline {3.1}Testumgebung}{12}{section.3.1}}
\newlabel{sec:testumgebung}{{3.1}{12}{Testumgebung}{section.3.1}{}}
\@writefile{toc}{\contentsline {section}{\numberline {3.2}Testdaten}{13}{section.3.2}}
\newlabel{sec:testdaten}{{3.2}{13}{Testdaten}{section.3.2}{}}
\gdef \LT@i {\LT@entry 
    {1}{189.20438pt}\LT@entry 
    {1}{56.50446pt}\LT@entry 
    {1}{188.80438pt}}
\@writefile{lot}{\contentsline {table}{\numberline {3.1}{Datenbeschreibung der Testdaten}}{14}{table.3.1}}
\newlabel{table:ExampleTable}{{3.1}{14}{Datenbeschreibung der Testdaten}{table.3.1}{}}
\@writefile{toc}{\contentsline {section}{\numberline {3.3}Testf\IeC {\"a}lle}{15}{section.3.3}}
\newlabel{sec:testfaelle}{{3.3}{15}{Testfälle}{section.3.3}{}}
\@writefile{toc}{\contentsline {section}{\numberline {3.4}Ergebnisse}{16}{section.3.4}}
\newlabel{sec:ergebnisse}{{3.4}{16}{Ergebnisse}{section.3.4}{}}
\@writefile{toc}{\contentsline {subsection}{\numberline {3.4.1}Testfall 1: Anmelden/Registrieren}{16}{subsection.3.4.1}}
\newlabel{subsec:test1}{{3.4.1}{16}{Testfall 1: Anmelden/Registrieren}{subsection.3.4.1}{}}
\@writefile{toc}{\contentsline {subsubsection}{\numberline {3.4.1.1}Datenmodell}{16}{subsubsection.3.4.1.1}}
\newlabel{subsubsec:test1datenmodell}{{3.4.1.1}{16}{Datenmodell}{subsubsection.3.4.1.1}{}}
\@writefile{toc}{\contentsline {subsubsection}{\numberline {3.4.1.2}Ergebnis}{16}{subsubsection.3.4.1.2}}
\newlabel{subsubsec:test1Ergebnis}{{3.4.1.2}{16}{Ergebnis}{subsubsection.3.4.1.2}{}}
\@writefile{lof}{\contentsline {figure}{\numberline {3.1}{\ignorespaces Anmelden bzw. Registrieren (Testfall 1)}}{16}{figure.3.1}}
\newlabel{fig:login}{{3.1}{16}{Anmelden bzw. Registrieren (Testfall 1)}{figure.3.1}{}}
\@writefile{toc}{\contentsline {subsection}{\numberline {3.4.2}Testfall 2: Auflisten von Benutzer}{17}{subsection.3.4.2}}
\newlabel{subsec:test2}{{3.4.2}{17}{Testfall 2: Auflisten von Benutzer}{subsection.3.4.2}{}}
\@writefile{toc}{\contentsline {subsubsection}{\numberline {3.4.2.1}Datenmodell}{17}{subsubsection.3.4.2.1}}
\newlabel{subsubsec:test2datenmodell}{{3.4.2.1}{17}{Datenmodell}{subsubsection.3.4.2.1}{}}
\@writefile{toc}{\contentsline {subsubsection}{\numberline {3.4.2.2}Ergebnis}{17}{subsubsection.3.4.2.2}}
\newlabel{subsubsec:test2Ergebnis}{{3.4.2.2}{17}{Ergebnis}{subsubsection.3.4.2.2}{}}
\@writefile{lof}{\contentsline {figure}{\numberline {3.2}{\ignorespaces Auflisten von Benutzer (Testfall 2)}}{17}{figure.3.2}}
\newlabel{fig:findall}{{3.2}{17}{Auflisten von Benutzer (Testfall 2)}{figure.3.2}{}}
\@writefile{toc}{\contentsline {subsection}{\numberline {3.4.3}Testfall 3: Alterspyramide}{18}{subsection.3.4.3}}
\newlabel{subsec:test3}{{3.4.3}{18}{Testfall 3: Alterspyramide}{subsection.3.4.3}{}}
\@writefile{toc}{\contentsline {subsubsection}{\numberline {3.4.3.1}Datenmodell}{18}{subsubsection.3.4.3.1}}
\newlabel{subsubsec:datenmodell}{{3.4.3.1}{18}{Datenmodell}{subsubsection.3.4.3.1}{}}
\@writefile{lot}{\contentsline {table}{\numberline {3.2}{\ignorespaces Datenbeschreibung f\IeC {\"u}r Testfall 3}}{18}{table.3.2}}
\newlabel{table:ExampleTable3}{{3.2}{18}{Datenbeschreibung für Testfall 3}{table.3.2}{}}
\@writefile{toc}{\contentsline {subsubsection}{\numberline {3.4.3.2}Ergebnis}{18}{subsubsection.3.4.3.2}}
\newlabel{subsubsec:test3Ergebnis}{{3.4.3.2}{18}{Ergebnis}{subsubsection.3.4.3.2}{}}
\@writefile{lof}{\contentsline {figure}{\numberline {3.3}{\ignorespaces Alterspyramide (Testfall 3)}}{18}{figure.3.3}}
\newlabel{fig:aggregation}{{3.3}{18}{Alterspyramide (Testfall 3)}{figure.3.3}{}}
\@writefile{toc}{\contentsline {subsection}{\numberline {3.4.4}Testfall 4: Profil bearbeiten}{19}{subsection.3.4.4}}
\newlabel{subsec:test4}{{3.4.4}{19}{Testfall 4: Profil bearbeiten}{subsection.3.4.4}{}}
\@writefile{toc}{\contentsline {subsubsection}{\numberline {3.4.4.1}Datenmodell}{19}{subsubsection.3.4.4.1}}
\newlabel{subsubsec:test3datenmodell}{{3.4.4.1}{19}{Datenmodell}{subsubsection.3.4.4.1}{}}
\@writefile{toc}{\contentsline {subsubsection}{\numberline {3.4.4.2}Ergebnis}{19}{subsubsection.3.4.4.2}}
\newlabel{subsubsec:test4Ergebnis}{{3.4.4.2}{19}{Ergebnis}{subsubsection.3.4.4.2}{}}
\@writefile{lof}{\contentsline {figure}{\numberline {3.4}{\ignorespaces Profil bearbeiten(Testfall 4)}}{19}{figure.3.4}}
\newlabel{fig:profile}{{3.4}{19}{Profil bearbeiten(Testfall 4)}{figure.3.4}{}}
\@writefile{toc}{\contentsline {subsection}{\numberline {3.4.5}Testfall 5: Auflistung aller M\IeC {\"a}nner}{20}{subsection.3.4.5}}
\@writefile{toc}{\contentsline {subsubsection}{\numberline {3.4.5.1}Datenmodell}{20}{subsubsection.3.4.5.1}}
\newlabel{subsubsec:test5datenmodell}{{3.4.5.1}{20}{Datenmodell}{subsubsection.3.4.5.1}{}}
\@writefile{toc}{\contentsline {subsubsection}{\numberline {3.4.5.2}Ergebnis}{20}{subsubsection.3.4.5.2}}
\newlabel{subsubsec:test5Ergebnis}{{3.4.5.2}{20}{Ergebnis}{subsubsection.3.4.5.2}{}}
\newlabel{subsec:test5}{{3.4.5.2}{20}{Ergebnis}{subsubsection.3.4.5.2}{}}
\@writefile{lof}{\contentsline {figure}{\numberline {3.5}{\ignorespaces Auflistung aller M\IeC {\"a}nner (Testfall 5)}}{20}{figure.3.5}}
\newlabel{fig:findmen}{{3.5}{20}{Auflistung aller Männer (Testfall 5)}{figure.3.5}{}}
\@writefile{toc}{\contentsline {section}{\numberline {3.5}Gesamt\IeC {\"u}berblick zum Performanz-Vergleich}{21}{section.3.5}}
\newlabel{sec:uberblick}{{3.5}{21}{Gesamtüberblick zum Performanz-Vergleich}{section.3.5}{}}
\@writefile{lof}{\contentsline {figure}{\numberline {3.6}{\ignorespaces Gesamt\IeC {\"u}berblick zum Performanz-Vergleich}}{21}{figure.3.6}}
\newlabel{fig:ueberblicktabelle}{{3.6}{21}{Gesamtüberblick zum Performanz-Vergleich}{figure.3.6}{}}
\@setckpt{chapter3}{
\setcounter{page}{22}
\setcounter{equation}{0}
\setcounter{enumi}{0}
\setcounter{enumii}{0}
\setcounter{enumiii}{0}
\setcounter{enumiv}{0}
\setcounter{footnote}{0}
\setcounter{mpfootnote}{0}
\setcounter{part}{0}
\setcounter{chapter}{3}
\setcounter{section}{5}
\setcounter{subsection}{0}
\setcounter{subsubsection}{0}
\setcounter{paragraph}{0}
\setcounter{subparagraph}{0}
\setcounter{figure}{6}
\setcounter{table}{2}
\setcounter{lstnumber}{5}
\setcounter{float@type}{8}
\setcounter{LT@tables}{1}
\setcounter{LT@chunks}{3}
\setcounter{subfigure}{0}
\setcounter{lofdepth}{1}
\setcounter{subtable}{0}
\setcounter{lotdepth}{1}
\setcounter{Item}{0}
\setcounter{Hfootnote}{0}
\setcounter{bookmark@seq@number}{0}
\setcounter{lstlisting}{0}
\setcounter{section@level}{1}
}
