\relax 
\providecommand\hyper@newdestlabel[2]{}
\@writefile{toc}{\contentsline {chapter}{\numberline {1}Einf\IeC {\"u}hrung}{1}{chapter.1}}
\@writefile{lof}{\addvspace {10\p@ }}
\@writefile{lot}{\addvspace {10\p@ }}
\newlabel{chap:intro}{{1}{1}{Einführung}{chapter.1}{}}
\@writefile{toc}{\contentsline {section}{\numberline {1.1}Hintergrund und Relevanz}{1}{section.1.1}}
\newlabel{sec:background}{{1.1}{1}{Hintergrund und Relevanz}{section.1.1}{}}
\@writefile{toc}{\contentsline {section}{\numberline {1.2}Problemstellung}{1}{section.1.2}}
\newlabel{sec:problem}{{1.2}{1}{Problemstellung}{section.1.2}{}}
\@writefile{toc}{\contentsline {section}{\numberline {1.3}Zielsetzung und Methodik}{1}{section.1.3}}
\newlabel{sec:objective}{{1.3}{1}{Zielsetzung und Methodik}{section.1.3}{}}
\@writefile{toc}{\contentsline {section}{\numberline {1.4}Originalit\IeC {\"a}t}{2}{section.1.4}}
\newlabel{sec:structure}{{1.4}{2}{Originalität}{section.1.4}{}}
\@writefile{toc}{\contentsline {section}{\numberline {1.5}Nicht-Ziele}{2}{section.1.5}}
\newlabel{sec:nichtziele}{{1.5}{2}{Nicht-Ziele}{section.1.5}{}}
\@writefile{toc}{\contentsline {section}{\numberline {1.6}Aufbau der Arbeit}{2}{section.1.6}}
\newlabel{sec:aufbau}{{1.6}{2}{Aufbau der Arbeit}{section.1.6}{}}
\@setckpt{chapter1}{
\setcounter{page}{3}
\setcounter{equation}{0}
\setcounter{enumi}{0}
\setcounter{enumii}{0}
\setcounter{enumiii}{0}
\setcounter{enumiv}{0}
\setcounter{footnote}{0}
\setcounter{mpfootnote}{0}
\setcounter{part}{0}
\setcounter{chapter}{1}
\setcounter{section}{6}
\setcounter{subsection}{0}
\setcounter{subsubsection}{0}
\setcounter{paragraph}{0}
\setcounter{subparagraph}{0}
\setcounter{figure}{0}
\setcounter{table}{0}
\setcounter{lstnumber}{1}
\setcounter{float@type}{8}
\setcounter{LT@tables}{0}
\setcounter{LT@chunks}{0}
\setcounter{subfigure}{0}
\setcounter{lofdepth}{1}
\setcounter{subtable}{0}
\setcounter{lotdepth}{1}
\setcounter{Item}{0}
\setcounter{Hfootnote}{0}
\setcounter{bookmark@seq@number}{0}
\setcounter{lstlisting}{0}
\setcounter{section@level}{1}
}
