\relax 
\providecommand\hyper@newdestlabel[2]{}
\providecommand\BKM@entry[2]{}
\catcode `"\active 
\providecommand\HyperFirstAtBeginDocument{\AtBeginDocument}
\HyperFirstAtBeginDocument{\ifx\hyper@anchor\@undefined
\global\let\oldcontentsline\contentsline
\gdef\contentsline#1#2#3#4{\oldcontentsline{#1}{#2}{#3}}
\global\let\oldnewlabel\newlabel
\gdef\newlabel#1#2{\newlabelxx{#1}#2}
\gdef\newlabelxx#1#2#3#4#5#6{\oldnewlabel{#1}{{#2}{#3}}}
\AtEndDocument{\ifx\hyper@anchor\@undefined
\let\contentsline\oldcontentsline
\let\newlabel\oldnewlabel
\fi}
\fi}
\global\let\hyper@last\relax 
\gdef\HyperFirstAtBeginDocument#1{#1}
\providecommand\HyField@AuxAddToFields[1]{}
\providecommand\HyField@AuxAddToCoFields[2]{}
\@input{title.aux}
\babel@aux{ngerman}{}
\@input{abstracts.aux}
\@input{glossary.aux}
\@input{keywords.aux}
\@input{toc.aux}
\@input{chapter1.aux}
\BKM@entry{id=1,dest={636861707465722E31},srcline={15}}{312045696E665C3337346872756E67}
\BKM@entry{id=2,dest={73656374696F6E2E312E31},srcline={18}}{312E312048696E7465726772756E6420756E642052656C6576616E7A}
\BKM@entry{id=3,dest={73656374696F6E2E312E32},srcline={22}}{312E322050726F626C656D7374656C6C756E67}
\BKM@entry{id=4,dest={73656374696F6E2E312E33},srcline={26}}{312E33205A69656C7365747A756E6720756E64204D6574686F64696B}
\BKM@entry{id=5,dest={73656374696F6E2E312E34},srcline={30}}{312E34204F726967696E616C69745C33343474}
\BKM@entry{id=6,dest={73656374696F6E2E312E35},srcline={34}}{312E35204E696368742D5A69656C65}
\BKM@entry{id=7,dest={73656374696F6E2E312E36},srcline={38}}{312E36204175666261752064657220417262656974}
\@input{chapter2.aux}
\BKM@entry{id=8,dest={636861707465722E32},srcline={14}}{32204772756E646C6167656E}
\BKM@entry{id=9,dest={73656374696F6E2E322E31},srcline={17}}{322E3120446174656E62616E6B747970656E}
\BKM@entry{id=10,dest={73656374696F6E2E322E32},srcline={97}}{322E3220546563686E6973636865204772756E646C6167656E}
\BKM@entry{id=11,dest={73656374696F6E2E322E33},srcline={185}}{322E332050657273697374656E7A204672616D65776F726B73}
\@input{chapter3.aux}
\BKM@entry{id=12,dest={636861707465722E33},srcline={2}}{332042656E63686D61726B}
\BKM@entry{id=13,dest={73656374696F6E2E332E31},srcline={6}}{332E312054657374756D676562756E67}
\BKM@entry{id=14,dest={73656374696F6E2E332E32},srcline={27}}{332E322054657374646174656E}
\BKM@entry{id=15,dest={73656374696F6E2E332E33},srcline={105}}{332E332054657374665C3334346C6C65}
\BKM@entry{id=16,dest={73656374696F6E2E332E34},srcline={132}}{332E342045726765626E69737365}
\BKM@entry{id=17,dest={73656374696F6E2E332E35},srcline={247}}{332E3520476573616D745C333734626572626C69636B207A756D20506572666F726D616E7A2D566572676C65696368}
\@input{chapter4.aux}
\BKM@entry{id=18,dest={636861707465722E34},srcline={1}}{342046617A6974}
\BKM@entry{id=19,dest={73656374696F6E2E342E31},srcline={4}}{342E31204469736B757373696F6E20756E64205265666C6578696F6E}
\BKM@entry{id=20,dest={73656374696F6E2E342E32},srcline={15}}{342E32205A7573616D6D656E66617373756E67}
\BKM@entry{id=21,dest={73656374696F6E2E342E33},srcline={22}}{342E332052656C6174656420576F726B}
\BKM@entry{id=22,dest={73656374696F6E2E342E34},srcline={30}}{342E342046757475726520576F726B}
\@input{appendix.aux}
\BKM@entry{id=23,dest={617070656E6469782E41},srcline={14}}{4120537072696E672044617461}
\BKM@entry{id=24,dest={617070656E6469782E42},srcline={540}}{422048696265726E617465}
\BKM@entry{id=25,dest={617070656E6469782E43},srcline={1141}}{43205665727A656963686E69737365}
\BKM@entry{id=26,dest={617070656E6469782E43},srcline={1144}}{416262696C64756E67737665727A656963686E6973}
\BKM@entry{id=27,dest={617070656E6469782A2E37},srcline={1151}}{546162656C6C656E7665727A656963686E6973}
\BKM@entry{id=28,dest={617070656E6469782A2E38},srcline={1166}}{4C69746572617475727665727A656963686E6973}
